…
``` r
# Lets Try altername 
names(D_trump) <- names

# Read in given Type of data
Type <- 'cccdddc'
read_csv(trump,col_types = Type )
```

    ## # A tibble: 3,232 x 7
    ##    created_at  text           url         replies retweets favorites user  
    ##    <chr>       <chr>          <chr>         <dbl>    <dbl>     <dbl> <chr> 
    ##  1 10/23/17 1~ I had a very ~ https://tw~   46228    10243     49468 realD~
    ##  2 10/23/17 1~ Two dozen NFL~ https://tw~   31419    14006     62406 realD~
    ##  3 10/23/17 1~ There will be~ https://tw~    9552    13719     62662 realD~
    ##  4 10/22/17 1~ It is finally~ https://tw~   56238    25102    112890 realD~
    ##  5 10/22/17 1~ Wacky Congres~ https://tw~   32136    21573     97145 realD~
    ##  6 10/22/17 1~ Doing intervi~ https://tw~   11153     7336     42415 realD~
    ##  7 10/22/17 0~ ...2nd Amendm~ https://tw~   24267    16216     72208 realD~
    ##  8 10/22/17 0~ ...9 months t~ https://tw~   16223    15125     71597 realD~
    ##  9 10/21/17 2~ I agree getti~ https://tw~   13914    12682     64506 realD~
    ## 10 10/21/17 2~ "Just out, bu~ https://tw~   11117    16286     61853 realD~
    ## # ... with 3,222 more rows
…
    ## # A tibble: 2 x 7
    ##   TweetDate  Tweets    TweetURL  Count_Reply Count_Retweet Count_Fav UserID
    ##   <chr>      <chr>     <chr>           <dbl>         <dbl>     <dbl> <chr> 
    ## 1 10/23/17 ~ I had a ~ https://~       46228         10243     49468 realD~
    ## 2 10/23/17 ~ Two doze~ https://~       31419         14006     62406 realD~

``` r
#Read 1st TWO colum of data
D_trump[,1:2]
```

    ## # A tibble: 3,232 x 2
    ##    TweetDate     Tweets                                                    
    ##    <chr>         <chr>                                                     
    ##  1 10/23/17 12:~ I had a very respectful conversation with the widow of Sg~
    ##  2 10/23/17 11:~ Two dozen NFL players continue to kneel during the Nation~
    ##  3 10/23/17 11:~ There will be NO change to your 401(k). This has always b~
    ##  4 10/22/17 12:~ It is finally sinking through. 46% OF PEOPLE BELIEVE MAJO~
    ##  5 10/22/17 12:~ Wacky Congresswoman Wilson is the gift that keeps on givi~
    ##  6 10/22/17 11:~ Doing interview today with Maria Bartiromo at 10:00 A.M. ~
    ##  7 10/22/17 0:09 ...2nd Amendment, Strong Military, ISIS, historic VA impr~
    ##  8 10/22/17 0:02 ...9 months than this Administration. Over 50 Legislation~
    ##  9 10/21/17 23:~ I agree getting Tax Cuts approved  is important (we will ~
    ## 10 10/21/17 22:~ "Just out, but lightly reported: \"Fewest jobless claims ~
    ## # ... with 3,222 more rows
…
dplyr : Working with Group by
-----------------------------

### Checking Group By

``` r
  print(newTestDate)
```

    ## # A tibble: 3,232 x 5
    ##    newDate             month wday  Count_Retweet Count_Reply
    ##    <dttm>              <ord> <ord>         <dbl>       <dbl>
    ##  1 2017-10-23 12:30:00 Oct   Mon           10243       46228
    ##  2 2017-10-23 11:53:00 Oct   Mon           14006       31419
    ##  3 2017-10-23 11:42:00 Oct   Mon           13719        9552
    ##  4 2017-10-22 12:08:00 Oct   Sun           25102       56238
    ##  5 2017-10-22 12:02:00 Oct   Sun           21573       32136
    ##  6 2017-10-22 11:50:00 Oct   Sun            7336       11153
    ##  7 2017-10-22 00:09:00 Oct   Sun           16216       24267
    ##  8 2017-10-22 00:02:00 Oct   Sun           15125       16223
    ##  9 2017-10-21 23:57:00 Oct   Sat           12682       13914
    ## 10 2017-10-21 22:51:00 Oct   Sat           16286       11117
    ## # ... with 3,222 more rows

``` r
  # I want to list all Tweets by Month and day
  # We can user group_by to group our data. 
  # Note: Group_by has no impact on data untill we use with some other function to run aggregation on it. Like summarise 
  group_by(newTestDate,month,wday)%>%summarise(Tweetcount  = n()) 
```

    ## # A tibble: 84 x 3
    ## # Groups:   month [12]
    ##    month wday  Tweetcount
    ##    <ord> <ord>      <int>
    ##  1 Jan   Sun           31
    ##  2 Jan   Mon           26
    ##  3 Jan   Tue           34
    ##  4 Jan   Wed           33
    ##  5 Jan   Thu           30
    ##  6 Jan   Fri           40
    ##  7 Jan   Sat           18
    ##  8 Feb   Sun           19
    ##  9 Feb   Mon           13
    ## 10 Feb   Tue           14
    ## # ... with 74 more rows
…
``` r
    group_by(newTestDate,month,wday)%>%summarise(Tweetcount  = sum(Count_Retweet))
```

    ## # A tibble: 84 x 3
    ## # Groups:   month [12]
    ##    month wday  Tweetcount
    ##    <ord> <ord>      <dbl>
    ##  1 Jan   Sun       719156
    ##  2 Jan   Mon       592222
    ##  3 Jan   Tue       562292
    ##  4 Jan   Wed       644696
    ##  5 Jan   Thu       573091
    ##  6 Jan   Fri       897298
    ##  7 Jan   Sat       378400
    ##  8 Feb   Sun       403334
    ##  9 Feb   Mon       326946
    ## 10 Feb   Tue       283436
    ## # ... with 74 more rows

``` r
    ungroup(newTestDate)
```

    ## # A tibble: 3,232 x 5
    ##    newDate             month wday  Count_Retweet Count_Reply
    ##    <dttm>              <ord> <ord>         <dbl>       <dbl>
    ##  1 2017-10-23 12:30:00 Oct   Mon           10243       46228
    ##  2 2017-10-23 11:53:00 Oct   Mon           14006       31419
    ##  3 2017-10-23 11:42:00 Oct   Mon           13719        9552
    ##  4 2017-10-22 12:08:00 Oct   Sun           25102       56238
    ##  5 2017-10-22 12:02:00 Oct   Sun           21573       32136
    ##  6 2017-10-22 11:50:00 Oct   Sun            7336       11153
    ##  7 2017-10-22 00:09:00 Oct   Sun           16216       24267
    ##  8 2017-10-22 00:02:00 Oct   Sun           15125       16223
    ##  9 2017-10-21 23:57:00 Oct   Sat           12682       13914
    ## 10 2017-10-21 22:51:00 Oct   Sat           16286       11117
    ## # ... with 3,222 more rows
…
### Working with filter

``` r
#---------------------------------

# filter()
# 

# List all the Tweet whcih has more than 100 reply 
filter(D_trump,D_trump$Count_Reply > 100)
```

    ## # A tibble: 3,232 x 10
    ##    TweetDate Tweets TweetURL Count_Reply Count_Retweet Count_Fav UserID
    ##    <chr>     <chr>  <chr>          <dbl>         <dbl>     <dbl> <chr> 
    ##  1 10/23/17~ I had~ https:/~       46228         10243     49468 realD~
    ##  2 10/23/17~ Two d~ https:/~       31419         14006     62406 realD~
    ##  3 10/23/17~ There~ https:/~        9552         13719     62662 realD~
    ##  4 10/22/17~ It is~ https:/~       56238         25102    112890 realD~
    ##  5 10/22/17~ Wacky~ https:/~       32136         21573     97145 realD~
    ##  6 10/22/17~ Doing~ https:/~       11153          7336     42415 realD~
    ##  7 10/22/17~ ...2n~ https:/~       24267         16216     72208 realD~
    ##  8 10/22/17~ ...9 ~ https:/~       16223         15125     71597 realD~
    ##  9 10/21/17~ I agr~ https:/~       13914         12682     64506 realD~
    ## 10 10/21/17~ "Just~ https:/~       11117         16286     61853 realD~
    ## # ... with 3,222 more rows, and 3 more variables: newDate <dttm>,
    ## #   month <ord>, wday <ord>

stringr package
---------------

### Find word

Find word starting with something

``` r
# Using Stringr lets say I want to know all the Tweets that were Retweeted. 
filter(D_trump,str_detect(D_trump$Tweets,"^RT")) 
```

    ## # A tibble: 354 x 10
    ##    TweetDate Tweets TweetURL Count_Reply Count_Retweet Count_Fav UserID
    ##    <chr>     <chr>  <chr>          <dbl>         <dbl>     <dbl> <chr> 
    ##  1 10/21/17~ RT @I~ https:/~        2555          5355     20354 realD~
    ##  2 10/19/17~ "RT @~ https:/~       22017          8273     35846 realD~
    ##  3 10/17/17~ "RT @~ https:/~        4058          7773     27962 realD~
    ##  4 10/16/17~ "RT @~ https:/~        5225          5575     25420 realD~
    ##  5 10/16/17~ "RT @~ https:/~        6502          5849     25588 realD~
    ##  6 10/14/17~ "RT @~ https:/~        6103          4504     24172 realD~
    ##  7 10/14/17~ "RT @~ https:/~        6096          5840     33380 realD~
    ##  8 10/14/17~ "RT @~ https:/~        6195          7975     40910 realD~
    ##  9 10/14/17~ "RT @~ https:/~       10648         11415     48761 realD~
    ## 10 10/14/17~ "RT @~ https:/~        3701          6951     22148 realD~
    ## # ... with 344 more rows, and 3 more variables: newDate <dttm>,
    ## #   month <ord>, wday <ord>

### Find exact

``` r
# Check how many Time Border is as an issue got mention in tweet. 
filter(D_trump,str_detect(D_trump$Tweets," border|Border|BORDER")) 
```

    ## # A tibble: 55 x 10
    ##    TweetDate Tweets TweetURL Count_Reply Count_Retweet Count_Fav UserID
    ##    <chr>     <chr>  <chr>          <dbl>         <dbl>     <dbl> <chr> 
    ##  1 10/22/17~ ...9 ~ https:/~       16223         15125     71597 realD~
    ##  2 10/17/17~ BORDE~ https:/~       25000         30876    103617 realD~
    ##  3 10/11/17~ The D~ https:/~       19442         19443     84611 realD~
    ##  4 10/10/17~ The p~ https:/~       21637         22304     87047 realD~
    ##  5 9/20/17 ~ "Alab~ https:/~        7657          7458     44134 realD~
    ##  6 9/14/17 ~ ...Th~ https:/~       19227         10890     53442 realD~
    ##  7 9/14/17 ~ No de~ https:/~       12738         17414     64733 realD~
    ##  8 9/10/17 ~ "RT @~ https:/~        1117          5226     23621 realD~
    ##  9 8/25/17 ~ Few, ~ https:/~       34911         15900     72957 realD~
    ## 10 8/24/17 ~ On Tu~ https:/~        6557         12598     57231 realD~
    ## # ... with 45 more rows, and 3 more variables: newDate <dttm>,
    ## #   month <ord>, wday <ord>

### find all the Pattern

``` r
# We can use Filter to create SUBSET of data based on need
filter(D_trump,str_detect(D_trump$Tweets,"@[[:alnum:]]+")) 
```

    ## # A tibble: 917 x 10
    ##    TweetDate Tweets TweetURL Count_Reply Count_Retweet Count_Fav UserID
    ##    <chr>     <chr>  <chr>          <dbl>         <dbl>     <dbl> <chr> 
    ##  1 10/22/17~ Doing~ https:/~       11153          7336     42415 realD~
    ##  2 10/21/17~ "Just~ https:/~       11117         16286     61853 realD~
    ##  3 10/21/17~ RT @I~ https:/~        2555          5355     20354 realD~
    ##  4 10/20/17~ "Toda~ https:/~        4644          6894     34922 realD~
    ##  5 10/20/17~ Thank~ https:/~        9395         12757     47309 realD~
    ##  6 10/20/17~ Great~ https:/~        9658         12767     53372 realD~
    ##  7 10/20/17~ Big r~ https:/~       10478          9778     50938 realD~
    ##  8 10/19/17~ "It w~ https:/~        9335         10865     48875 realD~
    ##  9 10/19/17~ "RT @~ https:/~       22017          8273     35846 realD~
    ## 10 10/19/17~ ".@fo~ https:/~       25491         23359     71378 realD~
    ## # ... with 907 more rows, and 3 more variables: newDate <dttm>,
    ## #   month <ord>, wday <ord>
…
